OptiVisT grasping analysis
…
The QQ-plot, Shapiro-Wilk test (a,t: ***) and Kolmogorov-Smirnov test
(a,t: ***) suggest that the data was generated from a non-normal
distribution –> we use non-parametric hypothesis tests –> Wilcoxon
rank sum to compare unpaired data medians.

Data visualiation and hypothesis testing

Calculate summary statistics, visualize aspects of the data and test
the corresponding hypotheses.

# Barplot: Mean trial times for each condition per participant
combined_data %>% filter(success == "success") %>% group_by(participant_id, condition) %>% summarize(mean_time = mean(time)*1000)

## # A tibble: 60 × 3
## # Groups:   participant_id [30]
##    participant_id condition mean_time
##             <dbl> <fct>         <dbl>
##  1              1 auditory      2730.
##  2              1 tactile       3181.
##  3              2 auditory      2657.
##  4              2 tactile       3435.
##  5              3 auditory      2428.
##  6              3 tactile       3499.
##  7              4 auditory      3014.
##  8              4 tactile       3112.
##  9              5 auditory      2718.
## 10              5 tactile       3158.
## # … with 50 more rows
…
