OptiVisT grasping analysis
…
The Shapiro-Wilk test (a,t: ***) suggests that the data was generated
from a non-normal distribution –> we use non-parametric hypothesis
tests –> Wilcoxon rank sum to compare unpaired data medians.

Data visualiation and hypothesis testing

Calculate summary statistics, visualize aspects of the data and test
the corresponding hypotheses.

# Barplot: Mean trial times for each condition per participant
clean_data %>% filter(success == "success") %>% group_by(participant_id, condition) %>% summarize(mean_time = mean(time)*1000)

## # A tibble: 60 × 3
## # Groups:   participant_id [30]
##    participant_id condition mean_time
##             <dbl> <fct>         <dbl>
##  1              1 auditory      2642.
##  2              1 tactile       3252.
##  3              2 auditory      2622.
##  4              2 tactile       3430.
##  5              3 auditory      2500.
##  6              3 tactile       3392.
##  7              4 auditory      2888.
##  8              4 tactile       3012.
##  9              5 auditory      2630.
## 10              5 tactile       2819.
## # … with 50 more rows
…
